%YAML 1.1
%TAG !u! tag:unity3d.com,2011:
--- !u!114 &11400000
MonoBehaviour:
  m_ObjectHideFlags: 0
  m_CorrespondingSourceObject: {fileID: 0}
  m_PrefabInstance: {fileID: 0}
  m_PrefabAsset: {fileID: 0}
  m_GameObject: {fileID: 0}
  m_Enabled: 1
  m_EditorHideFlags: 0
  m_Script: {fileID: 11500000, guid: aca82191b9987654f9ab94c86b269291, type: 3}
  m_Name: Boat
  m_EditorClassIdentifier: 
  BuildingName: Boat
  Description: A small boat that can only be placed on water.
  Model: {fileID: 0}
  CellsAsString: 102.102
